, 1, Place de l'Etoile, Grenoble;La Talemelerie, 1, Place de l'Etoile, Grenoble
, 4, Place Championnet, Grenoble;La Talemelerie, 4, Place Championnet, Grenoble
Bibliothèque Aragon Place Michel Couëtoux, Le Pont-de-Claix;Bibliothèque Aragon, Le Pont-de-Claix
Bibliothèque municipale François Mitterand, 9, rue Jean Jaurès, Gières;Bibliothèque François Mitterrand, 9, rue Jean Jaurès, Gières
Biocoop Casabio Chorier, 32, rue Nicolas Chorier, Grenoble;Biocoop, 32, rue Nicolas Chorier, Grenoble
Biocoop Casabio Libération, 234, cours de la Libération, Grenoble;Casabio, 234, Cours de la Libération et du Général de Gaulle, Grenoble
Boulangerie Au Blé d'Or, 105, avenue Léon Blum, Grenoble;Au Blé d'Or, 105, avenue Léon Blum, Grenoble
Boulangerie Banette Le Moulin Blanc, 102, avenue Marcel Cachin, Saint-Martin-d'Hères;Le Moulin Blanc, 102, avenue Marcel Cachin, Saint-Martin-d'Hères
Boulangerie Calabro, 33, rue Paul Héroult, Échirolles;Calabro, 33, rue Paul Héroult, Échirolles
Boulangerie Du Pain sur la Planche, 2, Cours Berriat, Grenoble;Du Pain sur la Planche, 2, Cours Berriat, Grenoble
Boulangerie Emile Bec, 13, avenue Grugliasco, Échirolles;Émile Bec, 13, avenue Grugliasco, Échirolles
Boulangerie Gourmand et Mignon, 20, Boulevard Foch, Grenoble;Gourmand & Mignon, 20, Boulevard Maréchal Foch, Grenoble
Boulangerie La Gerbe d'Or, 4, Place du Grésivaudan, Grenoble;La Gerbe d'Or, 4, Place du Grésivaudan, Grenoble
Boulangerie La Talemelerie, 11, rue de Stalingrad, Grenoble;La Talemelerie, 11, rue de Stalingrad, Grenoble
Boulangerie Maison Lenoir, 17, Rue Bayard, Grenoble;Maison Lenoir, 17, Rue Bayard, Grenoble
Boulangerie Maison Manival, 98, cours Jean Jaurès, Grenoble;Maison Manival, 98, cours Jean Jaurès, Grenoble
Boulangerie Paul Presqu'île, 78, avenue des Martyrs, Grenoble;Paul, 78, avenue des Martyrs, Grenoble
Boulangerie Pâtisserie Hervé Cohendet, 14, place de la République, Gières;Boulangerie Cohendet, 14, place de la République, Gières
Boulangerie Pâtisserie J-M Coste, 44, avenue Alsace Lorraine, Grenoble;Boulangerie Pâtisserie Coste, 44, avenue Alsace Lorraine, Grenoble
Boulangerie Pâtisserie La Tentation, 84, cours Jean Jaurès, Échirolles;La Tentation, 84, cours Jean Jaurès, Échirolles
Boulangerie Pâtisserie Lenoir, 5, rue Ampère, Grenoble;Maison Lenoir, 5, rue Ampère, Grenoble
Boulangerie Pâtisserie l'Art & Gourmet, 10, avenue Louis Armand, Seyssins;L'Art & Gourmet, 10, avenue Louis Armand, Seyssins
Boulangerie Pâtisserie la Moisson, 105, bis, rue de Stalingrad, Grenoble;La Moisson, rue de Stalingrad, Grenoble
Boulangerie d'Anna Immeuble le Bellevue, Route de Grenoble, Domène;Boulangerie d'Anna, Route de Grenoble, Domène
Boulangerie du Val d'Eybens, 70, avenue Jean Jaurès, Eybens;Le Fournil du Val, 70, avenue Jean Jaurès, Eybens
Boulangerie la Talemelerie, 29, rue Ampère, Grenoble;La Talemelerie, 29, rue Ampère, Grenoble
Boulangerie le Fournil, 5, avenue de Romans, Sassenage;Le Fournil Rustique, 5, avenue de Romans, Sassenage
CCAS - Le Patio, 40, rue de la Liberté, Seyssins;Centre Communal d'Action Sociale, 40, rue de la Liberté, Seyssins
CCAS Jean Moulin, 12, rue du Docteur Valois, Le Pont-de-Claix;Jean Moulin, 12, rue du Docteur Valois, Le Pont-de-Claix
CCAS, 27, rue Antoine Girard, Le Pont-de-Claix;Centre Communal d'Action Sociale, 27, avenue Antoine Girard, Le Pont-de-Claix
Café Brasserie Le Baroque, 4, Rue Joseph Chanrion, Grenoble;Le Baroque, 4, Rue Joseph Chanrion, Grenoble
Centre Socio-culturel et Sportif, 2, avenue Pierre Mendès France, Eybens;Centre Socio-culturel et Sportif, 2, avenue Pierre Mendès France, Poisat
Centre Technique de la Métropole à Eybens, 10, rue Le Corbusier (ouvert le lundi et le mercredi de, 9, h à, 11, h), Échirolles;Centre Technique de la Métropole, 10, rue Le Corbusier, Eybens
Centre social Bajatière, 79, avenue Jean Perrot, Grenoble;Association La Baja Espace socioculturel, 79, avenue Jean Perrot, Grenoble
Centre social Georges Sand, 14, boulevard Joliot-Curie, Fontaine;Centre Social George Sand, 14, Boulevard Joliot Curie, Fontaine
Centre social L'Arche, 79, avenue de la République, Seyssinet-Pariset;L'Arche, 79, avenue de la République, Seyssinet-Pariset
Charly Primeur, 8, avenue de Grenoble, Seyssinet-Pariset;Charly Primeurs, 8, avenue de Grenoble, Seyssinet-Pariset
Cookies – dépôt-vente, 59, rue de Stalingrad, Grenoble;Cookies Enfant, 59, rue de Stalingrad, Grenoble
Day By Day, 5, Place Condorcet, Grenoble;day by day - Mon épicerie en vrac, 5, Place Condorcet, Grenoble
Déchèterie Chemin des, 4, Lauzès, Sassenage;Déchèterie de Sassenage, Sassenage
Déchèterie d'Eybens, 33, rue des Grands Champs, Eybens;Déchetterie municipale, 33, rue des Grands Champs, Eybens
DéchèterieChemin de Risset, Claix;Déchèterie, Chemin de Risset, Claix
DéchèterieRue de Comboire, Seyssins;Déchetterie de Seyssins, Rue de Comboire, Seyssins
EPISOL, 45, rue Général Ferrié, Grenoble;Episol, 45, Rue du Général Ferrié, Grenoble
Epicuria Sucré Salé, 19, rue Gabriel Didier, Échirolles;Épicuria, 19, rue Gabriel Didier, Échirolles
Espace Liberté (CCAS), 32bis, rue de la Liberté, Fontaine;Espace liberté, 32, rue de la Liberté, Fontaine
Espace culturel Odyssée, 89, avenue Jean Jaurès, Eybens;Espace culturel L'Odyssée, 89, avenue Jean Jaurès, Eybens
Fournil Notre Dame, 2, Place Notre Dame, Grenoble;Le Fournil Notre-Dame, 2, Place Notre Dame, Grenoble
Graine d'Alice, 24bis, avenue de la Houille Blanche, Seyssinet-Pariset;Graine d'Alice, 24b, avenue de la Houille Blanche, Seyssinet-Pariset
Grenoble-Alpes Métropole - Forum Immeuble Forum, 3, Rue Malakoff, Grenoble;Grenoble-Alpes Métropole, 3, Rue Malakoff, Grenoble
Hôtel de ville, 1, place des, 5, Fontaines, Échirolles;Échirolles, 1, place des Cinq Fontaines, Échirolles
L'Angle du Fumeur Tabac - Presse - FDJ, 1, place du 8 Mai 1945, Le Pont-de-Claix;L'Angle du Fumeur, 1, place du 8 Mai 1945, Le Pont-de-Claix
L'Eau Vive (Espace Bien-Être), 2, Rue du Palais, Grenoble;L'Eau Vive, 2, Rue du Palais, Grenoble
La Fournée, 5, cours de la Libération, Grenoble;La Fournée, 5, Cours de la Libération et du Général de Gaulle, Grenoble
Le Fournil Martinerois, 67, avenue Potié, Saint-Martin-d'Hères;Le Fournil Martinérois, 67, avenue Potié, Saint-Martin-d'Hères
Le Fournil de Léo, 95, avenue Benoît Frachon, Saint-Martin-d'Hères;Le Grenier à pains, 95, avenue Benoît Frachon, Saint-Martin-d'Hères
Le Succès, 20bis, avenue de la République, Seyssinet-Pariset;Le Succès, avenue de la République, Seyssinet-Pariset
MJC Lucie Aubrac, 56, rue Général Ferrié, Grenoble;MJC Lucie Aubrac, 56, Rue du Général Ferrié, Grenoble
MJC Parmentier – Espace Waldeck Rousseau, 17, rue Daguerre et Niepce, Grenoble;MJC Parmentier - Espace Waldeck Rousseau, 17, rue Daguerre et Niepce, Grenoble
MJC Parmentier – École Simone Lagrange (mardi et jeudi de, 16, h à, 18, h), 12, rue Durand Savoyat, Grenoble;École primaire Simone Lagrange, 11, Rue Mélinée et Missak Manouchian, Grenoble
Mairie Place André Balme, Seyssinet-Pariset;Mairie, Place André Balme, Seyssinet-Pariset
Mairie de Gières, 15, rue Victor Hugo, Gières;Mairie, 15, rue Victor Hugo, Gières
Mairie de Poisat, 2, place Georges Brassens, Eybens;Mairie, 2, place Georges Brassens, Poisat
Mairie, 1, place de la Libération, Sassenage;Sassenage, 1, place de la Libération, Sassenage
Mairie, 266, Montée du Champ de la Vigne, Domène;Murianette, 266, Montée du Champ de la Vigne, Murianette
MairieParc François Mitterand, Seyssins;Mairie de Seyssins, Seyssins
MairiePlace Hector Berlioz, Claix;Mairie, Place Hector Berlioz, Claix
MairiePlace Stalingrad, Domène;Mairie, Place Stalingrad, Domène
Maison des Habitants, 58, rue de Stalingrad, Grenoble;Maison des habitants - Capuche, 58, rue de Stalingrad, Grenoble
Maison des habitants Anatole France, 68bis, rue Anatole France, Grenoble;Maison des habitants Anatole France, 68, rue Anatole France, Grenoble
Maison des habitants Chorier Berriat, 10, rue Henry le Chatelier, Grenoble;Maison des habitants Chorier-Berriat , 10, rue Henry le Chatelier, Grenoble
Maison des habitants Les Coulmes, 10, place des Coulmes, Eybens;Maison Des Coulmes, 10, place des Coulmes, Eybens
Maison des habitants l'Iliade, 10, place Condorcet, Eybens;L'Illiade, 10, place Condorcet, Eybens
Maison des habitant·es La Ponatière, 8, avenue Paul Vaillant-Couturier, Échirolles;Maison des habitant-es La Ponatière, 8, avenue Paul Vaillant-Couturier, Échirolles
Maison des habitant·es Les Ecureuils, 2, rue Normandie Niemen, Échirolles;Maison des habitants Les Écureuils / Centre-Est, 2, rue Normandie Niemen, Échirolles
Mille et, 1, Pains, 155, avenue Ambroise Croizat, Saint-Martin-d'Hères;Mille et 1 Pains, 155, avenue Ambroise Croizat, Saint-Martin-d'Hères
Parking relais Vallier-Catane (durant les heures de présence du gardien), 60, rue Ampère, Grenoble;P+R Vallier − Catane, 60, rue Ampère, Grenoble
Pharmacie Alsace Lorraine, 17, Cours Jean Jaurès, Grenoble;Pharmacie Alsace-Lorraine, 15, Cours Jean Jaurès, Grenoble
Pharmacie Centrale (Coutelen), 11, rue Jean Jaurès Murianette, Domène;Pharmacie Centrale, 11, rue Jean Jaurès, Domène
Pharmacie Falliex Vera, 73, cours Saint-André, Le Pont-de-Claix;Pharmacie Falliex - Vera, 73, cours Saint-André, Le Pont-de-Claix
Pharmacie Lafayette Grenoble Bastille, 3, Boulevard Gambetta, Grenoble;Pharmacie Lafayette, 22, Avenue Félix Viallet, Grenoble
Pharmacie Les Charmettes, 2, rue Marius Charles, Domène;Pharmacie des Charmettes, 2, rue Marius Charles, Domène
Pharmacie Pont Rouge Le Palladium -, 21, Place Jean Monnet, Claix;Pharmacie Pont Rouge Le Palladium, 21, Place Jean Monnet, Claix
Pharmacie Porte de France, 8, Route de Lyon, Grenoble;Pharmacie de la Porte de France , 8, Route de Lyon, Grenoble
Pharmacie Sylvestre, 7bis, rue Emile Blanc, Domène;Pharmacie Sylvestre, rue Emile Blanc, Domène
Pharmacie de La Mauve, 2, Rue du, 47, ème Régiment du Génie, Grenoble;Pharmacie de la Mauve, 2, Rue du 4e Régiment du Génie, Grenoble
Pharmacie de l'Argentière, 14bis, avenue de Romans, Sassenage;Pharmacie de l'Argentière, 14 avenue de Romans, Sassenage
Pharmacie de la Plaine SMH, 17, rue Edmond Rostand, Saint-Martin-d'Hères;Pharmacie de la Plaine, 17, rue Edmond Rostand, Saint-Martin-d'Hères
Pharmacie des Portes d'Eybens, 13, avenue Jean Jaurès, Eybens;Pharmacie Porte d'Eybens, 13, avenue Jean Jaurès, Eybens
Pharmacie des Roches Bleues, 31bis, rue du Moucherotte, Seyssinet-Pariset;Pharmacie des Roches Bleues, rue du Moucherotte, Seyssinet-Pariset
Pharmashopi Libération, 214, cours de la Libération, Grenoble;Pharmacie Libération, 214, Cours de la Libération et du Général de Gaulle, Grenoble
Primeur Le Fruitier, 1, Place de l'Etoile, Grenoble;Le Fruitier, 1, Place de l'Etoile, Grenoble
Primeur Le Verger des Gourmets, 23, avenue Jean Perrot, Grenoble;Alimentation Générale Primeur, 23, avenue Jean Perrot, Grenoble
Primeur Select' Fruit, 21, Rue de Strasbourg, Grenoble;Select Fruits, 21, Rue de Strasbourg, Grenoble
Primeur le Panier des Alpins, 20, rue René Lesage, Grenoble;Alpins primeurs, 14 Avenue Léon Blum, Grenoble
Pâtes et pains, 46, avenue du Vercors, Seyssinet-Pariset;Pates & Pains Boulangerie-Tarterie, 46, avenue du Vercors, Seyssinet-Pariset
Pâtisserie boulangerie « Le Friand », 159, cours de la Libération, Grenoble;Le Friand, 159, Cours de la Libération et du Général de Gaulle, Grenoble
Pâtisserie-Boulangerie Bourbon, 3, Place Notre Dame, Grenoble;Bourbon, 3, Place Notre Dame, Grenoble
Salon de coiffure Fox'n Roll, 19, avenue Henri Wallon, Échirolles;Fox'n Roll, 19, avenue Henri Wallon, Échirolles
Tabac - Presse - Loto Le Portail Rouge, 205, avenue Ambroise Croizat, Saint-Martin-d'Hères;Le Portail Rouge, 205, avenue Ambroise Croizat, Saint-Martin-d'Hères
Tabac Maison de la Presse, 31, rue Jean Jaurès, Domène;Tabac Presse, 31, rue Jean Jaurès, Domène
Tabac Presse «Le Palladium», 9, Place Jean Monnet, Claix;Tabac Presse Le Palladium, 9, Place Jean Monnet, Claix
Tabac Presse, 6, place du Village, Seyssins;Tabac-Presse le Méloine, 6, place du Village, Seyssins
Tabac presse Arago, 7, rue Arago, Grenoble;Tabac Presse Loto Arago, 7, rue Arago, Grenoble
Tabac presse Bruno Loytier Place de Verdun Poisat, Eybens;Tabac Presse, Place de Verdun, Eybens
Tabac presse le Vésuve, 37, avenue Alsace Lorraine, Grenoble;Le Vésuve, 37, avenue Alsace Lorraine, Grenoble
À l'Envers – bistrot boutique événements, 3, rue d'Alembert, Grenoble;Brasserie À L'Envers, 3, rue d'Alembert, Grenoble